{
  "_class": "group",
  "do_objectID": "CF3A159E-CD73-4E56-9039-8BBCF8CC7BB5",
  "exportOptions": {
    "_class": "exportOptions",
    "exportFormats": [
    ],
    "includedLayerIds": [
    ],
    "layerOptions": 0,
    "shouldTrim": false
  },
  "frame": {
    "_class": "rect",
    "constrainProportions": false,
    "height": 53,
    "width": 958,
    "x": 0,
    "y": 0
  },
  "hasClickThrough": false,
  "isFlippedHorizontal": false,
  "isFlippedVertical": false,
  "isLocked": false,
  "isVisible": true,
  "layerListExpandedType": 0,
  "layers": [
    {
      "class": "shapeGroup",
      "id": "ED99B115-1811-4F66-B7A2-DA0EB3AD73CA"
    },
    {
      "class": "group",
      "id": "B6D7CC3E-E1FC-4F35-8603-4B9B996DE6FA"
    },
    {
      "class": "group",
      "id": "16BA1430-548C-4D49-B324-54E863C7093F"
    },
    {
      "class": "group",
      "id": "A90CF0BD-5B1E-4519-BE18-43DB0BD8815C"
    },
    {
      "class": "group",
      "id": "5112E845-57AF-438C-BCE0-7915AA7004B6"
    },
    {
      "class": "group",
      "id": "442D06BA-D56D-4D55-8A56-27013FBA5837"
    }
  ],
  "name": "tabs_merge_request",
  "nameIsFixed": true,
  "resizingConstraint": 63,
  "resizingType": 0,
  "rotation": 0,
  "shouldBreakMaskChain": false,
  "style": {
    "_class": "style",
    "endDecorationType": 0,
    "miterLimit": 10,
    "startDecorationType": 0
  }
}