{
  "_class": "group",
  "do_objectID": "A911C0DC-DE53-43E6-948F-634D999E4B67",
  "exportOptions": {
    "_class": "exportOptions",
    "exportFormats": [
    ],
    "includedLayerIds": [
    ],
    "layerOptions": 0,
    "shouldTrim": false
  },
  "frame": {
    "_class": "rect",
    "constrainProportions": false,
    "height": 28,
    "width": 647,
    "x": 607,
    "y": 1602
  },
  "hasClickThrough": false,
  "isFlippedHorizontal": false,
  "isFlippedVertical": false,
  "isLocked": false,
  "isVisible": true,
  "layerListExpandedType": 2,
  "layers": [
    {
      "class": "shapeGroup",
      "id": "2043E8FE-5EC5-4E32-8CA9-E449F7B49871"
    },
    {
      "class": "shapeGroup",
      "id": "E7FE10F4-81F9-4F1A-9E1A-CE3CE859F616"
    },
    {
      "class": "shapeGroup",
      "id": "6C378359-36BD-41D7-B7FE-7950CAC9BA57"
    },
    {
      "class": "shapeGroup",
      "id": "FF9B449B-8D42-4D97-8063-450E85649E36"
    },
    {
      "class": "text",
      "id": "90B8A835-D749-4C44-81EB-CF4D6C195C27"
    }
  ],
  "name": "new_epic copy 23",
  "nameIsFixed": true,
  "resizingConstraint": 63,
  "resizingType": 0,
  "rotation": 0,
  "shouldBreakMaskChain": false,
  "style": {
    "_class": "style",
    "endDecorationType": 0,
    "miterLimit": 10,
    "startDecorationType": 0
  }
}