{
  "_class": "group",
  "do_objectID": "8755D996-015F-40C8-99BE-ADAE2C8DE14B",
  "exportOptions": {
    "_class": "exportOptions",
    "exportFormats": [
    ],
    "includedLayerIds": [
    ],
    "layerOptions": 0,
    "shouldTrim": false
  },
  "frame": {
    "_class": "rect",
    "constrainProportions": false,
    "height": 82,
    "width": 1295,
    "x": 344,
    "y": 71
  },
  "hasClickThrough": false,
  "isFlippedHorizontal": false,
  "isFlippedVertical": false,
  "isLocked": false,
  "isVisible": true,
  "layerListExpandedType": 0,
  "layers": [
    {
      "class": "shapeGroup",
      "id": "4C6FBEA1-4522-440E-95B1-DDEA641005AF"
    },
    {
      "class": "shapeGroup",
      "id": "BF19A052-86A9-4494-9AC2-0BAAE032AAA9"
    },
    {
      "class": "symbolInstance",
      "id": "09E003CE-1816-4883-BEB8-86DDD8675378"
    },
    {
      "class": "symbolInstance",
      "id": "FBE045B5-D52A-49DB-BC74-3B0B9691AC6E"
    },
    {
      "class": "symbolInstance",
      "id": "5DB63A42-3169-49F4-BAB0-A298752715EB"
    },
    {
      "class": "symbolInstance",
      "id": "11043684-F056-431A-A3BF-8EEAF8EB7B34"
    },
    {
      "class": "shapeGroup",
      "id": "545F7555-420E-4EE9-8D0C-15EFED49405B"
    },
    {
      "class": "symbolInstance",
      "id": "CD3D6A62-E1FE-4E08-BB8B-9F44D73960D1"
    },
    {
      "class": "symbolInstance",
      "id": "E6D93576-D1D8-48EE-82FC-83110F66B34F"
    },
    {
      "class": "symbolInstance",
      "id": "DA2388D4-4537-455B-B98F-E43DBD456D7B"
    },
    {
      "class": "symbolInstance",
      "id": "716DC8D1-B5C4-4A65-9A5B-32006EA6B736"
    },
    {
      "class": "symbolInstance",
      "id": "4EB6D944-216D-4CE3-A91D-0D0145F7A8B1"
    },
    {
      "class": "symbolInstance",
      "id": "4A7ADD0D-5F6F-43B2-BFA6-E2DF728EA768"
    },
    {
      "class": "symbolInstance",
      "id": "2B8CA232-A2E5-4C56-8FE7-49B5CE861D57"
    },
    {
      "class": "symbolInstance",
      "id": "5D4A4EE2-4F8A-4521-9480-4A7C654560CD"
    },
    {
      "class": "symbolInstance",
      "id": "63F91EB4-3246-45F0-8006-5605D8E7D7D3"
    },
    {
      "class": "symbolInstance",
      "id": "3648D069-E547-4524-9D22-24C46F4FD98C"
    },
    {
      "class": "symbolInstance",
      "id": "8A8E7B3D-07B1-4C4F-9C66-266CF73F847F"
    },
    {
      "class": "symbolInstance",
      "id": "AC646CF2-BCB3-4115-9C81-F7E8267A889D"
    },
    {
      "class": "symbolInstance",
      "id": "CBF62F60-7E5D-4B7D-B265-01C9823F2784"
    },
    {
      "class": "symbolInstance",
      "id": "CFF91605-6D25-4FDF-B4B8-B4BFA6EE9D6E"
    },
    {
      "class": "symbolInstance",
      "id": "2931CDD9-B1D1-4C53-95F7-1BD1AB0AFDD0"
    },
    {
      "class": "symbolInstance",
      "id": "29EEB441-E580-40CD-9355-E7CF00C329EE"
    },
    {
      "class": "symbolInstance",
      "id": "14997C31-9BE2-44FB-BA6C-45ED9F22393D"
    },
    {
      "class": "symbolInstance",
      "id": "1108AA73-5165-4427-969D-6F3DF1EB60BE"
    },
    {
      "class": "symbolInstance",
      "id": "A012427A-EB3C-4E70-BB19-F2D95186B570"
    },
    {
      "class": "symbolInstance",
      "id": "529EDCD8-94C5-4C20-AF33-B89A8ECE359C"
    },
    {
      "class": "symbolInstance",
      "id": "3208987C-582B-4F75-8F54-063E626EBA94"
    },
    {
      "class": "symbolInstance",
      "id": "CF654B79-E943-4E79-B475-4C34AD68BC1F"
    },
    {
      "class": "symbolInstance",
      "id": "0875DB2F-3561-48DA-A96E-7CDC53ECB872"
    },
    {
      "class": "symbolInstance",
      "id": "E69C76FE-C5E7-4275-A0D6-92747D7D3157"
    },
    {
      "class": "symbolInstance",
      "id": "7B9B5D2E-3E31-4F2E-A5B8-F543BA16D9FD"
    },
    {
      "class": "symbolInstance",
      "id": "91EFDE61-E6ED-443A-8F03-0A187A469438"
    },
    {
      "class": "symbolInstance",
      "id": "D534771E-EB36-4F45-B7DC-157E45E72151"
    },
    {
      "class": "symbolInstance",
      "id": "4A41BFE2-D5B4-489D-A3A1-CABADE17D070"
    },
    {
      "class": "symbolInstance",
      "id": "392344E8-68C5-41A8-82A2-BF801ABA305F"
    },
    {
      "class": "symbolInstance",
      "id": "E596751F-B54C-4071-831B-27F7782B08C8"
    },
    {
      "class": "symbolInstance",
      "id": "8CC4D7FA-67D2-4C0B-8C5D-49B61B99A256"
    },
    {
      "class": "symbolInstance",
      "id": "AF7B543B-E019-4EC3-9F9C-83E3B9D77271"
    },
    {
      "class": "symbolInstance",
      "id": "51B8ECD8-3A02-4A03-A50F-3A17E33D4722"
    },
    {
      "class": "symbolInstance",
      "id": "37CC7EB2-2F8A-49C5-AAF8-94E4D166762D"
    },
    {
      "class": "symbolInstance",
      "id": "C7BDFC0E-1A9F-48FF-B96A-72849AF9553F"
    },
    {
      "class": "symbolInstance",
      "id": "DC1DA9C9-CAD7-43E6-8BE9-B51579B11612"
    },
    {
      "class": "symbolInstance",
      "id": "65C14CC7-F421-4A9A-B2AA-CB6F15806623"
    },
    {
      "class": "symbolInstance",
      "id": "595A451A-447C-4BD4-B9BA-91DABF76D148"
    },
    {
      "class": "symbolInstance",
      "id": "83868943-1DD7-4D34-B2FF-482FD53F2255"
    },
    {
      "class": "symbolInstance",
      "id": "A94ECA33-E155-4B38-9A4C-310DDC2F0C93"
    },
    {
      "class": "symbolInstance",
      "id": "1D0D161F-468C-46B5-A6FF-CA6A7E74241F"
    },
    {
      "class": "symbolInstance",
      "id": "293B722B-35AB-4482-9A24-9352900D6258"
    },
    {
      "class": "symbolInstance",
      "id": "E00D7FE3-A22A-4AD7-B9BF-7FDA0511BA25"
    },
    {
      "class": "symbolInstance",
      "id": "758E12CE-CED7-44B4-AC0E-630C59DDB71D"
    },
    {
      "class": "symbolInstance",
      "id": "D02E2F19-4749-46D9-BD29-D05697CBC8C0"
    },
    {
      "class": "symbolInstance",
      "id": "8FA0DCF4-471E-4A7D-B32A-14CEE2FEE946"
    },
    {
      "class": "symbolInstance",
      "id": "F093581D-8FAC-4466-8009-8A10E30A2EFD"
    },
    {
      "class": "symbolInstance",
      "id": "7412C15B-B34A-4D22-961F-75DA38028E97"
    },
    {
      "class": "symbolInstance",
      "id": "2E83A3CE-A920-4FE7-AA4E-67A2BA08E249"
    },
    {
      "class": "symbolInstance",
      "id": "86CA302C-5C3A-4FC5-8EA7-B8734154F625"
    },
    {
      "class": "symbolInstance",
      "id": "CAE1B17A-0B8F-483D-AB3D-2F0CCF8A961D"
    },
    {
      "class": "symbolInstance",
      "id": "45AB4AA5-F0E0-40FC-8717-3D19575B9EC0"
    },
    {
      "class": "symbolInstance",
      "id": "ECBC3411-7C97-4405-9F65-874C15B3D539"
    },
    {
      "class": "symbolInstance",
      "id": "37C0DA2F-125B-42E2-8CA5-76D8710EC9E0"
    }
  ],
  "name": "timeline",
  "nameIsFixed": true,
  "resizingConstraint": 63,
  "resizingType": 0,
  "rotation": 0,
  "shouldBreakMaskChain": false,
  "style": {
    "_class": "style",
    "endDecorationType": 0,
    "miterLimit": 10,
    "startDecorationType": 0
  }
}