{
  "_class": "group",
  "do_objectID": "39AB2739-14DA-4535-90F8-0A6BDC92ADEE",
  "exportOptions": {
    "_class": "exportOptions",
    "exportFormats": [
    ],
    "includedLayerIds": [
    ],
    "layerOptions": 0,
    "shouldTrim": false
  },
  "frame": {
    "_class": "rect",
    "constrainProportions": false,
    "height": 24,
    "width": 33,
    "x": 165,
    "y": 0
  },
  "hasClickThrough": false,
  "isFlippedHorizontal": true,
  "isFlippedVertical": false,
  "isLocked": false,
  "isVisible": false,
  "layerListExpandedType": 0,
  "layers": [
    {
      "class": "shapeGroup",
      "id": "B8838AAC-1C08-4885-80A3-A9A6CBE6A0C0"
    },
    {
      "class": "shapeGroup",
      "id": "9BB29105-675D-487A-BBFF-085C50CB8F75"
    },
    {
      "class": "shapeGroup",
      "id": "CAF55922-AD63-428D-B9A5-4B81D3101CA3"
    },
    {
      "class": "shapeGroup",
      "id": "5B1DA14A-41F3-4508-B670-6FF8A004C48F"
    },
    {
      "class": "shapeGroup",
      "id": "72E2FECF-0F56-4548-B482-3F1C900C10D5"
    }
  ],
  "name": "Group Copy",
  "nameIsFixed": false,
  "resizingConstraint": 63,
  "resizingType": 0,
  "rotation": 0,
  "shouldBreakMaskChain": false,
  "style": {
    "_class": "style",
    "endDecorationType": 0,
    "miterLimit": 10,
    "startDecorationType": 0
  }
}