{
  "_class": "group",
  "do_objectID": "442D06BA-D56D-4D55-8A56-27013FBA5837",
  "exportOptions": {
    "_class": "exportOptions",
    "exportFormats": [
    ],
    "includedLayerIds": [
    ],
    "layerOptions": 0,
    "shouldTrim": false
  },
  "frame": {
    "_class": "rect",
    "constrainProportions": false,
    "height": 53,
    "width": 89,
    "x": 0,
    "y": 0
  },
  "hasClickThrough": false,
  "isFlippedHorizontal": false,
  "isFlippedVertical": false,
  "isLocked": false,
  "isVisible": true,
  "layerListExpandedType": 0,
  "layers": [
    {
      "class": "shapeGroup",
      "id": "1C2B5A5F-1633-4DCA-92C2-A44AAFE346BA"
    },
    {
      "class": "shapeGroup",
      "id": "D5BC85BD-28D3-4269-BADF-B319FE01FAE7"
    },
    {
      "class": "group",
      "id": "B3C55536-E94F-4CA9-9BA3-03B885CADCCC"
    },
    {
      "class": "text",
      "id": "C4BCA113-7187-412E-BF0A-F4BA317C4B8C"
    }
  ],
  "name": "tab-discussions",
  "nameIsFixed": true,
  "resizingConstraint": 63,
  "resizingType": 0,
  "rotation": 0,
  "shouldBreakMaskChain": false,
  "style": {
    "_class": "style",
    "endDecorationType": 0,
    "miterLimit": 10,
    "startDecorationType": 0
  }
}