{
  "_class": "shapeGroup",
  "clippingMaskMode": 0,
  "do_objectID": "4B73F420-B9D1-4751-81C2-CDBEA38DE356",
  "exportOptions": {
    "_class": "exportOptions",
    "exportFormats": [
    ],
    "includedLayerIds": [
    ],
    "layerOptions": 0,
    "shouldTrim": false
  },
  "frame": {
    "_class": "rect",
    "constrainProportions": false,
    "height": 4,
    "width": 527,
    "x": 0,
    "y": 0
  },
  "hasClickThrough": false,
  "hasClippingMask": false,
  "isFlippedHorizontal": false,
  "isFlippedVertical": false,
  "isLocked": false,
  "isVisible": true,
  "layerListExpandedType": 1,
  "layers": [
    {
      "class": "rectangle",
      "id": "90A759A8-5B03-4252-AC5D-3FFE60B05D11"
    }
  ],
  "name": "Rectangle 5 Copy 2",
  "nameIsFixed": false,
  "resizingConstraint": 63,
  "resizingType": 0,
  "rotation": 0,
  "shouldBreakMaskChain": false,
  "style": {
    "sharedObjectID": "65802A2B-CB02-4F1B-A5DA-C45CA7D3EB92"
  },
  "windingRule": 1
}