{
  "_class": "group",
  "do_objectID": "0426D66E-70D7-4312-B69F-7553EF5D78AE",
  "exportOptions": {
    "_class": "exportOptions",
    "exportFormats": [
    ],
    "includedLayerIds": [
    ],
    "layerOptions": 0,
    "shouldTrim": false
  },
  "frame": {
    "_class": "rect",
    "constrainProportions": false,
    "height": 408,
    "width": 220,
    "x": 0,
    "y": 0
  },
  "hasClickThrough": false,
  "isFlippedHorizontal": false,
  "isFlippedVertical": false,
  "isLocked": false,
  "isVisible": true,
  "layerListExpandedType": 2,
  "layers": [
    {
      "class": "symbolInstance",
      "id": "A0DDC85C-7916-4C5E-9CD3-FCC0AD6070E0"
    },
    {
      "class": "symbolInstance",
      "id": "4AB01092-EEB8-4714-95FF-1B37149B96B1"
    },
    {
      "class": "symbolInstance",
      "id": "AB96DE8A-C089-4EB0-AD80-5E5054C27909"
    },
    {
      "class": "symbolInstance",
      "id": "36B76655-7C9C-4E85-8F9C-48AA28809416"
    },
    {
      "class": "symbolInstance",
      "id": "F976F062-52DC-40FD-8119-031193CBBB26"
    },
    {
      "class": "symbolInstance",
      "id": "91F184C8-3E7F-49F8-A3E1-0BB67BFC0A7D"
    },
    {
      "class": "symbolInstance",
      "id": "8D69C3B2-D29F-4013-9EC5-434AF8E85530"
    },
    {
      "class": "symbolInstance",
      "id": "7CFBA576-0BDE-4E58-9D7C-BEA5F036C165"
    },
    {
      "class": "group",
      "id": "3023C7E0-26E7-4E8D-908B-3D0336309ECD"
    },
    {
      "class": "symbolInstance",
      "id": "021CFFBF-DAC3-42D6-AC3C-D323266B0EB2"
    },
    {
      "class": "symbolInstance",
      "id": "9CB59E3B-90FB-442E-A780-31A2F695926A"
    }
  ],
  "name": "top-aligned",
  "nameIsFixed": true,
  "resizingConstraint": 11,
  "resizingType": 0,
  "rotation": 0,
  "shouldBreakMaskChain": false,
  "style": {
    "_class": "style",
    "endDecorationType": 0,
    "miterLimit": 10,
    "startDecorationType": 0
  }
}