{
  "_class": "shapeGroup",
  "clippingMaskMode": 0,
  "do_objectID": "B6754D96-78BE-42C4-9DA0-0849D633D07F",
  "exportOptions": {
    "_class": "exportOptions",
    "exportFormats": [
    ],
    "includedLayerIds": [
    ],
    "layerOptions": 0,
    "shouldTrim": false
  },
  "frame": {
    "_class": "rect",
    "constrainProportions": false,
    "height": 15.99991814775953,
    "width": 16,
    "x": 0,
    "y": 0.000081852240471747
  },
  "hasClickThrough": false,
  "hasClippingMask": true,
  "isFlippedHorizontal": false,
  "isFlippedVertical": false,
  "isLocked": false,
  "isVisible": true,
  "layerListExpandedType": 0,
  "layers": [
    {
      "class": "shapePath",
      "id": "AA8BBC1B-5479-43C3-BBCD-8C5C26160CB3"
    },
    {
      "class": "shapePath",
      "id": "F44A7A6E-51B0-4456-AEB9-E90F7F192104"
    },
    {
      "class": "shapePath",
      "id": "DD7617E0-EA00-453D-9635-483767BABD8D"
    },
    {
      "class": "shapePath",
      "id": "D5A19EF3-1A81-4C62-8683-0DB5F20638A4"
    }
  ],
  "name": "Mask",
  "nameIsFixed": false,
  "resizingConstraint": 63,
  "resizingType": 0,
  "rotation": 0,
  "shouldBreakMaskChain": false,
  "style": {
    "_class": "style",
    "endDecorationType": 0,
    "fills": [
      {
        "_class": "fill",
        "color": {
          "_class": "color",
          "alpha": 1,
          "blue": 0,
          "green": 0,
          "red": 0
        },
        "fillType": 0,
        "isEnabled": true,
        "noiseIndex": 0,
        "noiseIntensity": 0,
        "patternFillType": 1,
        "patternTileScale": 1
      }
    ],
    "miterLimit": 10,
    "startDecorationType": 0
  },
  "windingRule": 1
}